{
	"style": {
        "opacity": "0.5"
    },
    "files": {
    	"resource/glyphicons/png/glyphicons-38-coins.png"				: "category-currency",
		"resource/glyphicons/png/glyphicons-100-vector-path-all.png"	: "category-area",
		"resource/glyphicons/png/glyphicons-528-database.png"			: "category-digital-storage",
		"resource/glyphicons/png/glyphicons-472-gas-station.png"		: "category-fuel-consumption",
		"resource/glyphicons/png/glyphicons-99-vector-path-curve.png"	: "category-length",
		"resource/glyphicons/png/glyphicons-357-dumbbell.png"			: "category-mass",
		"resource/glyphicons/png/glyphicons-340-rabbit.png"				: "category-speed",
		"resource/glyphicons/png/glyphicons-23-fire.png"				: "category-temperature",
		"resource/glyphicons/png/glyphicons-541-hourglass.png"			: "category-time",
		"resource/cube.png"				: "category-volume"
	}
}