{
	"name": "Length",
	"baseKey": "Meter",
	"map" : {
		"Centimeters": 100,
		"Kilometer": 0.001,
		"Meter": 1,
		"Millimeter": 1000,
		"Mile": 0.000621371,
		"Yard": 1.09361,
		"Foot": 3.28084,
		"Inch": 39.3701,
		"Nautical mile": 0.000539957 
	}
}