{
	"name": "Mass",
	"baseKey": "Gram",
	"map" : {	
		"Metric ton": 0.000001,
		"Kilogram": 0.001,
		"Gram": 1,
		"Milligram": 1000,
		"Mcg": 1000000,
		"Long ton": 0.00000098421,
		"Short ton": 0.0000011023,
		"Stone": 0.000157473,
		"Pound": 0.00220462,
		"Ounce": 0.035274
	}
}